<?xml version="1.0" encoding="UTF-8" standalone="no"?>
<!-- Created with PhotoLine 20.53 (www.pl32.de) -->
<!DOCTYPE svg PUBLIC "-//W3C//DTD SVG 1.1//EN" "http://www.w3.org/Graphics/SVG/1.1/DTD/svg11.dtd">
<svg width="512" height="512" viewBox="0 0 512 512" version="1.1" xmlns="http://www.w3.org/2000/svg" xmlns:xlink="http://www.w3.org/1999/xlink">
  <g transform="matrix(0.983756 0 0 0.999999 0.002466 25.208559)">
    <rect fill="#ffff00" fill-rule="evenodd" x="0.5" y="-25.71" width="519" height="514.82"/>
    <g transform="matrix(1.016512 0 0 1.000001 31.001113 110.291542)">
      <text kerning="0" font-family="Dyuthi" font-size="300" fill="#3578ba">
        <tspan x="0" y="210.06">1</tspan>
      </text>
    </g>
    <g transform="matrix(1.016512 0 0 1.000001 186.527496 7.291449)">
      <text kerning="0" font-family="Dyuthi" font-size="300" fill="#3578ba">
        <tspan x="0" y="210.06">2</tspan>
      </text>
    </g>
    <g transform="matrix(1.016512 0 0 1.000001 325.789672 185.291625)">
      <text kerning="0" font-family="Dyuthi" font-size="300" fill="#3578ba">
        <tspan x="0" y="210.06">3</tspan>
      </text>
    </g>
  </g>
</svg>
