<?xml version="1.0" encoding="UTF-8" standalone="no"?>
<!-- Created with PhotoLine 20.53 (www.pl32.de) -->
<!DOCTYPE svg PUBLIC "-//W3C//DTD SVG 1.1//EN" "http://www.w3.org/Graphics/SVG/1.1/DTD/svg11.dtd">
<svg width="512" height="512" viewBox="0 0 512 512" version="1.1" xmlns="http://www.w3.org/2000/svg" xmlns:xlink="http://www.w3.org/1999/xlink">
  <g transform="matrix(0.983756 0 0 0.999999 0.002466 25.208557)">
    <rect fill="#bfbf00" fill-rule="evenodd" x="0.5" y="-25.71" width="519" height="514.82"/>
  </g>
  <g id="n-Eck" transform="matrix(1 0 0 1 8.779007 42)">
    <path fill="#5e0000" fill-rule="evenodd" d="M247 82.5 L115.5 345.5 L378.5 345.5 Z"/>
  </g>
</svg>
